16ea113aec9d708c6a5fa411be98cdbdc768b2778063d3f629
6248fcf10afbab4b5d6bf1f4f8c31ee3b71c4e1152b2ee587a
8fade7d95eb5ae43bbf66490896c730177f98c8df78ada816b
4e107673891be0098da816dbb40bbd2ee71ce2bde81c747674
c6e38ab3ed19220e119f412a0db382d590d82717d7cdc5bc25
1aa9b3e7098081b5cdb9f1b2f8d819e77df1994551e72c3af6
a578e360f07b658294a7abe8b5451a163e63a2fb6fe6831c57
500228f694a1e1378923f48d4c332dad176765fd3810ac9624
ae8e5e6d894aa2ad44664741b2fb6f8751cbdd95c0545212ad
4c2611f392de22162128699e8bcaae486d622fdadaf8352716
537131a765dbe084f09d837ac9bf1509ccc5bc0c8d90860c58
1c02e9cc47fea9aeca6fca849a6e855c9ee7f6a34a60b6ec55
35e1ca3ee6c5ad0d748a2737f6204c5364fa41d2785f854bda
d6450d821f2a142bcfd533a803b681305f2a4c21e186252de5
2d5f79cf3a163d7ab25b8b0d240eb1397c4b99f5177faa6b12
a3c21b6d5980cd577c7d346a7e56a7f272b9a600ce6371462b
07fdec490be918bf64463f93ab294bbe585ab76e5b6834be09
c7ecf2a5a120934a352e229fb016e91f4108f45fbd85d9258d
71e713fe61e4d3b2e7c65c24dfb18662bbb13f9a46c123162c
2e662f71f717a4d58bf0470a35f3bb54e4e2fd7e1d772d693c
ad6b9d2b805d22e842dd238002f22e802a0f0f5c6c3fd47a15
a0eb9b0ac3041e60002d8404eaae471c7ad30406fe287867de
b8657235b43fb14eaf00624db9764760ff1a9d3b58c315a565
2c775fbd73be8adde55bd48e7919606fb42d9e9e1f1b9cf6ca
ee1fa4131c22aa89186f1f6d25686783e2b532f7cfb89991c6
0fc6c728eed14c776a32d4526bf17bc808e996466e6774bd0d
1fb71db823ba0bf458b0230bf239edbb64bf3af03396287b44
708ac421f00e0332a5d969a32bb1cb0748fae086f04e8dde19
45ec691e3eb14112f5768796865d8acd430af34783fbbf8364
2248e0b35a24125ad5b4ee5b9ec93de8c5ebcd4eb9c357878e
d26f3008a5afdf526b37963a3f793a04fbf96eeade24935539
25adbcbb3e57eb7165503d3d2d0e5918e09168536ee343885c
ab39b69ed21b5f3cb9a0732285068805bf201a6bac71b6d5d8
cd765ee8eaeccf7a3229aea3d7599086f31f21d680b9fe9fd6
fef87413de26af2d699bbe62088e36b78b6535826ce684410e
114f2f298c121999e3700be542c0e56e716d188d3e283799b9
4a11a0f56e7bbbfc0e87e89e79a5e0698ce751bc146f469c21
46a9a6b286cc9f4b7a95e8b51986d23809f73d2261138f3d46
cd0cdd99c9c3e0455f32ffdfd9cbe8e8a39106dce8212f30ed
4085e8f18f0eee860526e45c4a1bce1ddca65a2cd7c994a571
