88eb9620b108dcc229fcad57e8fcd78e70840e7341054949fc
3cb713b8e6f0268a1b12cd0547449ce75b215ee430a399c24e
b2eb1840abcb4fb64009d3fb00018013f2f0f17be224cf3a61
f041ee1d72f772a8d7b2d8ac6d56e2385cf0cabdcda8126ce1
1203844e54cc7885a5d54c14a677c5750892f401533faa1208
40021dc3502d3322fe1a10e96bf18ebbae0d676498161187cd
869ae4103ed0d923c44a05e6a0a2ba22f5554e678ec5705dad
d535ff8ddecbd568a5c4412fc4e7e028a192968be5cd1311c5
f9f14e632c38dd47c80f58b4bb5565a85428a189bba9c416b9
5e53d7b5849682826656ec6706b00e13cfc52216e7abf27cf0
70f7a1a6e9478ec690de2d014415362c19719618e187f6c771
cc6f511cc48e819a8987c20d878ce2fa90fd3fccf611e54392
758db987446fcdff2f6ca7e976569564ed60a00d4561cb80bc
415659ad73bb7f76b406e94ae7c9771d72a3f479d368aeefc6
ce1048ca4b87501f82e4ab3d2c1224b7f7a6b8673a0ed22b58
950297efa252ee40fc3604e13b388ca0b8ce19d6328e793a87
41ad40cc8c8eb66d25d512b20b1d2d75c131d564ff012c577e
93be00700a040cd6777e0efe2db6cbbd7a283f3c52dd1a2e1a
dbeee520af4de6762018d2da1744e2961285aa2074f146706e
51af3ff246e798a716c42951fab48bee836bde51c38e91e70c
5323e93fc546da50a3cb316784740b873aef894de212a6e93e
77ff27a9328003506dc24608ceca5089add39fb2fb8a30c91f
6dff58bb6e6814dab53ed5a47347fd747c1f4589aad0ec971d
26e35ba1e544b9bb9b6a4aab27998b6991e80ad52e91685f88
f594762b75b54adf3847f0a79bbb6645cf2225806ea4e59041
9acfb1b93888ae4410415d07a41f8b15ddfa8885564840af65
4c6e6820932be0508f871d9f365a31df64152acc516381d406
8221cca3e8abc78e6bc53a2e77daad84c5e3c1f048511c3d9a
bebe59ca808572e1b8a62886d0e5973a409dfa17939ce9196a
14afa34213534f30cf34dd069d5c8004b7a6a4472d4d4d4098
341ca44c51c8b6d2874af6860b112a87fe806e795d4378a0e6
cee0640cf88b829126b19057d3328414ab52f957d34703ee69
ebdf7e8c21c3cb5181cdecb6f7ff134ae3cb2f518bbc403b62
96ec36f1d821506e5d6a18d467593c97071131f61ae05b833a
cce31826b62c4d0bfb0188146718dbf6f5c63c7c7d611eabfe
75c9afed9c912a7094728cbc8447ea142180b333c52483acb0
c773b01e05625406f002ea096bd5b33e81fe8ece750b905195
a4aa27cc2e8a5cc3a8c7656c45be66549601ddc362f68dfc28
fd6d0a19b0cb60cbd021d7f4bf7e12c03393ace18c3789e943
f3c7c0714ffadb34a93d59e136254217ee53edb3d9ae79d608
