eaf64c9243dc0a2baccd0cbf66ad89f489cc91f488d9433a41
614f3de28aa270037232868ad08aa72c35c93911ae1a5c2335
158554f33b7388efd0e52b606da9c8773f44360c74ee3c7909
7d7ff3c7581100a1983f7dece8f07561684bbd7bc510e8aaae
56c799a6ec35e2d585f7cc5b7c41cacd9221e01fa51ef9aaff
49e97addb8e64f57022e0a751edfc4875511ec2ad89ae5e16e
0fc1cf3f04b7198c12d16c72e9c8aeeefb1f276b014beb8555
cf07d154684c33d05868f965bc675e0ac84cf8f269506d4bb4
1eac5559c811e95c5e2111f82ec9383cad3712f5fbe0c6a367
359acc474cc731d86cea1620c7c29c884be30416d4fc7d4c5b
597aedcbceb1479f1577f13f34c26eeaea29c67cfeb3124bdb
e363dba5b2f22f751d5ba40cc9b9bcc1f6fa7f16924fae3c4f
85b39d885103d0e77c84fc57d7db690d0feb0b6fe0f50734e7
693a81feee9081c8270e5086be96572a997d674ce24a9fb592
71a005271c7ddf58bef45b36a82a8da812cb9e99132c9dcd61
f2d80e81c0ec91dfa284093813eaba8880d7d140a18977fcc5
a42e6043c02808559699fd007f87abd87b4585c74bacc65551
a6047820428d1487bdd600be2a1bec8cc4da1be147430cc026
d42b877deffe4785559e92b218ab135b2747787e38bd1dfe37
d1031c490c6f382f33f501945d2a05cfec75dc8b2d76d00e55
db32ce3c35c3e2caf15185f5d1bfcec7320c35317cd4d6daa6
6966bdbbfd25dabd89fff16f03af6362249886d9ecbde6dcf1
35d674ca634d13fd9597c6cebe0a870562a8e7c3d5015c2800
73f809d2ad144861b13c3388222f0a361d71baf71a1c396bf6
bc753a847a813ab7b00407fbfe762025f158929664ecb4b44e
9ee4ca06cb809a6240eb3251c56f058a88d51d876c38acbba8
739df565e8158788f3792a3b3d938bbe00c7a05a71d9a97c0e
b4aaaf2f2f49247293b38deefe26031dc3c6095ca143165bcc
bd7d52a0a0b23cbf7cb08710f40c27faffe393eba66cfdc520
68f05ceb44437fd0ed1e922f4243e8cfdb0d8cf430a866e0e1
4c89bd41f02270222a4b2b71af25456a54e0c1cd8319f8e7ba
f47385ef580950a13ebf886e516f49cbe385ee40173169dd19
5f83b56c25070b14eaa3d1aed2b4fc6b9bc27d3baf318d3b14
d5cd473c9a01e191e763c057b3e1c3626ded3d1b0dac48b24e
2af85afea69e86278cd3a8c0494689c3b57d6dd07598db68cb
c3cdb2804509b9991de5c295c42bbce89198d497d64d50058a
35c11cfa0e9a69140cb2e2b70390a387959b6d2069163c43bd
5026baf9a48a03105e3158576adf8af751019c681aff63f6c6
6004ee9159659b1f7b7846e7b1da592b2f23aa184f72fc0dae
b47fa4b260f67335490de892da7d6f4c25a9e37a0c9f19243b
